{"data":[{"id":5196653611,"external_id":"6991f724ecdc91","sync_product_id":419414079,"name":"JewSA Basic Tee / Black / S","status":"synced","catalog_variant_id":15114,"warehouse_product_variant_id":null,"retail_price":"25.00","sku":"6991F724EB7FF_Black-S","currency":"USD","is_ignored":false,"product_options":[{"name":"lifelike","value":false},{"name":"notes","value":""}],"placements":[{"placement":"front","technique":"dtg","layers":[{"type":"file","position":{"width":4.8373,"height":4.8265,"top":2.3415,"left":3.5905},"url":"","id":null,"layer_options":[]},{"type":"textbox","position":{"width":8.664,"height":2.016,"top":8.8382,"left":1.682},"url":"","id":null,"layer_options":[]}],"placement_options":[],"status":"","status_explanation":""}],"_links":{"self":{"href":"https://api.printful.com/v2/sync-variants/5196653611"},"sync_product":{"href":"https://api.printful.com/v2/sync-products/419414079"}}},{"id":5196653612,"external_id":"6991f724ecdd38","sync_product_id":419414079,"name":"JewSA Basic Tee / Black / M","status":"synced","catalog_variant_id":15115,"warehouse_product_variant_id":null,"retail_price":"25.00","sku":"6991F724EB7FF_Black-M","currency":"USD","is_ignored":false,"product_options":[{"name":"lifelike","value":false},{"name":"notes","value":""}],"placements":[{"placement":"front","technique":"dtg","layers":[{"type":"file","position":{"width":4.8373,"height":4.8265,"top":2.3415,"left":3.5905},"url":"","id":null,"layer_options":[]},{"type":"textbox","position":{"width":8.664,"height":2.016,"top":8.8382,"left":1.682},"url":"","id":null,"layer_options":[]}],"placement_options":[],"status":"","status_explanation":""}],"_links":{"self":{"href":"https://api.printful.com/v2/sync-variants/5196653612"},"sync_product":{"href":"https://api.printful.com/v2/sync-products/419414079"}}},{"id":5196653613,"external_id":"6991f724ecddc5","sync_product_id":419414079,"name":"JewSA Basic Tee / Black / L","status":"synced","catalog_variant_id":15116,"warehouse_product_variant_id":null,"retail_price":"25.00","sku":"6991F724EB7FF_Black-L","currency":"USD","is_ignored":false,"product_options":[{"name":"lifelike","value":false},{"name":"notes","value":""}],"placements":[{"placement":"front","technique":"dtg","layers":[{"type":"file","position":{"width":4.8373,"height":4.8265,"top":2.3415,"left":3.5905},"url":"","id":null,"layer_options":[]},{"type":"textbox","position":{"width":8.664,"height":2.016,"top":8.8382,"left":1.682},"url":"","id":null,"layer_options":[]}],"placement_options":[],"status":"","status_explanation":""}],"_links":{"self":{"href":"https://api.printful.com/v2/sync-variants/5196653613"},"sync_product":{"href":"https://api.printful.com/v2/sync-products/419414079"}}},{"id":5196653614,"external_id":"6991f724ecde52","sync_product_id":419414079,"name":"JewSA Basic Tee / Black / XL","status":"synced","catalog_variant_id":15117,"warehouse_product_variant_id":null,"retail_price":"25.00","sku":"6991F724EB7FF_Black-XL","currency":"USD","is_ignored":false,"product_options":[{"name":"lifelike","value":false},{"name":"notes","value":""}],"placements":[{"placement":"front","technique":"dtg","layers":[{"type":"file","position":{"width":4.8373,"height":4.8265,"top":2.3415,"left":3.5905},"url":"","id":null,"layer_options":[]},{"type":"textbox","position":{"width":8.664,"height":2.016,"top":8.8382,"left":1.682},"url":"","id":null,"layer_options":[]}],"placement_options":[],"status":"","status_explanation":""}],"_links":{"self":{"href":"https://api.printful.com/v2/sync-variants/5196653614"},"sync_product":{"href":"https://api.printful.com/v2/sync-products/419414079"}}},{"id":5196653615,"external_id":"6991f724ecded3","sync_product_id":419414079,"name":"JewSA Basic Tee / Black / 2XL","status":"synced","catalog_variant_id":15118,"warehouse_product_variant_id":null,"retail_price":"25.00","sku":"6991F724EB7FF_Black-2XL","currency":"USD","is_ignored":false,"product_options":[{"name":"lifelike","value":false},{"name":"notes","value":""}],"placements":[{"placement":"front","technique":"dtg","layers":[{"type":"file","position":{"width":4.8373,"height":4.8265,"top":2.3415,"left":3.5905},"url":"","id":null,"layer_options":[]},{"type":"textbox","position":{"width":8.664,"height":2.016,"top":8.8382,"left":1.682},"url":"","id":null,"layer_options":[]}],"placement_options":[],"status":"","status_explanation":""}],"_links":{"self":{"href":"https://api.printful.com/v2/sync-variants/5196653615"},"sync_product":{"href":"https://api.printful.com/v2/sync-products/419414079"}}},{"id":5196653616,"external_id":"6991f724ecdf53","sync_product_id":419414079,"name":"JewSA Basic Tee / Black / 3XL","status":"synced","catalog_variant_id":16326,"warehouse_product_variant_id":null,"retail_price":"25.00","sku":"6991F724EB7FF_Black-3XL","currency":"USD","is_ignored":false,"product_options":[{"name":"lifelike","value":false},{"name":"notes","value":""}],"placements":[{"placement":"front","technique":"dtg","layers":[{"type":"file","position":{"width":4.8373,"height":4.8265,"top":2.3415,"left":3.5905},"url":"","id":null,"layer_options":[]},{"type":"textbox","position":{"width":8.664,"height":2.016,"top":8.8382,"left":1.682},"url":"","id":null,"layer_options":[]}],"placement_options":[],"status":"","status_explanation":""}],"_links":{"self":{"href":"https://api.printful.com/v2/sync-variants/5196653616"},"sync_product":{"href":"https://api.printful.com/v2/sync-products/419414079"}}},{"id":5196653617,"external_id":"6991f724ecdfc2","sync_product_id":419414079,"name":"JewSA Basic Tee / Black / 4XL","status":"synced","catalog_variant_id":17500,"warehouse_product_variant_id":null,"retail_price":"25.00","sku":"6991F724EB7FF_Black-4XL","currency":"USD","is_ignored":false,"product_options":[{"name":"lifelike","value":false},{"name":"notes","value":""}],"placements":[{"placement":"front","technique":"dtg","layers":[{"type":"file","position":{"width":4.8373,"height":4.8265,"top":2.3415,"left":3.5905},"url":"","id":null,"layer_options":[]},{"type":"textbox","position":{"width":8.664,"height":2.016,"top":8.8382,"left":1.682},"url":"","id":null,"layer_options":[]}],"placement_options":[],"status":"","status_explanation":""}],"_links":{"self":{"href":"https://api.printful.com/v2/sync-variants/5196653617"},"sync_product":{"href":"https://api.printful.com/v2/sync-products/419414079"}}},{"id":5196653618,"external_id":"6991f724ece035","sync_product_id":419414079,"name":"JewSA Basic Tee / Flo Blue / S","status":"synced","catalog_variant_id":15171,"warehouse_product_variant_id":null,"retail_price":"25.00","sku":"6991F724EB7FF_Flo-Blue-S","currency":"USD","is_ignored":false,"product_options":[{"name":"lifelike","value":false},{"name":"notes","value":""}],"placements":[{"placement":"front","technique":"dtg","layers":[{"type":"file","position":{"width":4.8373,"height":4.8265,"top":2.3415,"left":3.5905},"url":"","id":null,"layer_options":[]},{"type":"textbox","position":{"width":8.664,"height":2.016,"top":8.8382,"left":1.682},"url":"","id":null,"layer_options":[]}],"placement_options":[],"status":"","status_explanation":""}],"_links":{"self":{"href":"https://api.printful.com/v2/sync-variants/5196653618"},"sync_product":{"href":"https://api.printful.com/v2/sync-products/419414079"}}},{"id":5196653619,"external_id":"6991f724ece0a9","sync_product_id":419414079,"name":"JewSA Basic Tee / Flo Blue / M","status":"synced","catalog_variant_id":15172,"warehouse_product_variant_id":null,"retail_price":"25.00","sku":"6991F724EB7FF_Flo-Blue-M","currency":"USD","is_ignored":false,"product_options":[{"name":"lifelike","value":false},{"name":"notes","value":""}],"placements":[{"placement":"front","technique":"dtg","layers":[{"type":"file","position":{"width":4.8373,"height":4.8265,"top":2.3415,"left":3.5905},"url":"","id":null,"layer_options":[]},{"type":"textbox","position":{"width":8.664,"height":2.016,"top":8.8382,"left":1.682},"url":"","id":null,"layer_options":[]}],"placement_options":[],"status":"","status_explanation":""}],"_links":{"self":{"href":"https://api.printful.com/v2/sync-variants/5196653619"},"sync_product":{"href":"https://api.printful.com/v2/sync-products/419414079"}}},{"id":5196653620,"external_id":"6991f724ece128","sync_product_id":419414079,"name":"JewSA Basic Tee / Flo Blue / L","status":"synced","catalog_variant_id":15173,"warehouse_product_variant_id":null,"retail_price":"25.00","sku":"6991F724EB7FF_Flo-Blue-L","currency":"USD","is_ignored":false,"product_options":[{"name":"lifelike","value":false},{"name":"notes","value":""}],"placements":[{"placement":"front","technique":"dtg","layers":[{"type":"file","position":{"width":4.8373,"height":4.8265,"top":2.3415,"left":3.5905},"url":"","id":null,"layer_options":[]},{"type":"textbox","position":{"width":8.664,"height":2.016,"top":8.8382,"left":1.682},"url":"","id":null,"layer_options":[]}],"placement_options":[],"status":"","status_explanation":""}],"_links":{"self":{"href":"https://api.printful.com/v2/sync-variants/5196653620"},"sync_product":{"href":"https://api.printful.com/v2/sync-products/419414079"}}},{"id":5196653621,"external_id":"6991f724ece1a8","sync_product_id":419414079,"name":"JewSA Basic Tee / Flo Blue / XL","status":"synced","catalog_variant_id":15174,"warehouse_product_variant_id":null,"retail_price":"25.00","sku":"6991F724EB7FF_Flo-Blue-XL","currency":"USD","is_ignored":false,"product_options":[{"name":"lifelike","value":false},{"name":"notes","value":""}],"placements":[{"placement":"front","technique":"dtg","layers":[{"type":"file","position":{"width":4.8373,"height":4.8265,"top":2.3415,"left":3.5905},"url":"","id":null,"layer_options":[]},{"type":"textbox","position":{"width":8.664,"height":2.016,"top":8.8382,"left":1.682},"url":"","id":null,"layer_options":[]}],"placement_options":[],"status":"","status_explanation":""}],"_links":{"self":{"href":"https://api.printful.com/v2/sync-variants/5196653621"},"sync_product":{"href":"https://api.printful.com/v2/sync-products/419414079"}}},{"id":5196653622,"external_id":"6991f724ece214","sync_product_id":419414079,"name":"JewSA Basic Tee / Flo Blue / 2XL","status":"synced","catalog_variant_id":15175,"warehouse_product_variant_id":null,"retail_price":"25.00","sku":"6991F724EB7FF_Flo-Blue-2XL","currency":"USD","is_ignored":false,"product_options":[{"name":"lifelike","value":false},{"name":"notes","value":""}],"placements":[{"placement":"front","technique":"dtg","layers":[{"type":"file","position":{"width":4.8373,"height":4.8265,"top":2.3415,"left":3.5905},"url":"","id":null,"layer_options":[]},{"type":"textbox","position":{"width":8.664,"height":2.016,"top":8.8382,"left":1.682},"url":"","id":null,"layer_options":[]}],"placement_options":[],"status":"","status_explanation":""}],"_links":{"self":{"href":"https://api.printful.com/v2/sync-variants/5196653622"},"sync_product":{"href":"https://api.printful.com/v2/sync-products/419414079"}}},{"id":5196653623,"external_id":"6991f724ece298","sync_product_id":419414079,"name":"JewSA Basic Tee / Flo Blue / 3XL","status":"synced","catalog_variant_id":16329,"warehouse_product_variant_id":null,"retail_price":"25.00","sku":"6991F724EB7FF_Flo-Blue-3XL","currency":"USD","is_ignored":false,"product_options":[{"name":"lifelike","value":false},{"name":"notes","value":""}],"placements":[{"placement":"front","technique":"dtg","layers":[{"type":"file","position":{"width":4.8373,"height":4.8265,"top":2.3415,"left":3.5905},"url":"","id":null,"layer_options":[]},{"type":"textbox","position":{"width":8.664,"height":2.016,"top":8.8382,"left":1.682},"url":"","id":null,"layer_options":[]}],"placement_options":[],"status":"","status_explanation":""}],"_links":{"self":{"href":"https://api.printful.com/v2/sync-variants/5196653623"},"sync_product":{"href":"https://api.printful.com/v2/sync-products/419414079"}}},{"id":5196653624,"external_id":"6991f724ece318","sync_product_id":419414079,"name":"JewSA Basic Tee / Flo Blue / 4XL","status":"synced","catalog_variant_id":17498,"warehouse_product_variant_id":null,"retail_price":"25.00","sku":"6991F724EB7FF_Flo-Blue-4XL","currency":"USD","is_ignored":false,"product_options":[{"name":"lifelike","value":false},{"name":"notes","value":""}],"placements":[{"placement":"front","technique":"dtg","layers":[{"type":"file","position":{"width":4.8373,"height":4.8265,"top":2.3415,"left":3.5905},"url":"","id":null,"layer_options":[]},{"type":"textbox","position":{"width":8.664,"height":2.016,"top":8.8382,"left":1.682},"url":"","id":null,"layer_options":[]}],"placement_options":[],"status":"","status_explanation":""}],"_links":{"self":{"href":"https://api.printful.com/v2/sync-variants/5196653624"},"sync_product":{"href":"https://api.printful.com/v2/sync-products/419414079"}}},{"id":5196653625,"external_id":"6991f724ece395","sync_product_id":419414079,"name":"JewSA Basic Tee / White / S","status":"synced","catalog_variant_id":15124,"warehouse_product_variant_id":null,"retail_price":"25.00","sku":"6991F724EB7FF_White-S","currency":"USD","is_ignored":false,"product_options":[{"name":"lifelike","value":false},{"name":"notes","value":""}],"placements":[{"placement":"front","technique":"dtg","layers":[{"type":"file","position":{"width":4.8373,"height":4.8265,"top":2.3415,"left":3.5905},"url":"","id":null,"layer_options":[]},{"type":"textbox","position":{"width":8.664,"height":2.016,"top":8.8382,"left":1.682},"url":"","id":null,"layer_options":[]}],"placement_options":[],"status":"","status_explanation":""}],"_links":{"self":{"href":"https://api.printful.com/v2/sync-variants/5196653625"},"sync_product":{"href":"https://api.printful.com/v2/sync-products/419414079"}}},{"id":5196653626,"external_id":"6991f724ece403","sync_product_id":419414079,"name":"JewSA Basic Tee / White / M","status":"synced","catalog_variant_id":15125,"warehouse_product_variant_id":null,"retail_price":"25.00","sku":"6991F724EB7FF_White-M","currency":"USD","is_ignored":false,"product_options":[{"name":"lifelike","value":false},{"name":"notes","value":""}],"placements":[{"placement":"front","technique":"dtg","layers":[{"type":"file","position":{"width":4.8373,"height":4.8265,"top":2.3415,"left":3.5905},"url":"","id":null,"layer_options":[]},{"type":"textbox","position":{"width":8.664,"height":2.016,"top":8.8382,"left":1.682},"url":"","id":null,"layer_options":[]}],"placement_options":[],"status":"","status_explanation":""}],"_links":{"self":{"href":"https://api.printful.com/v2/sync-variants/5196653626"},"sync_product":{"href":"https://api.printful.com/v2/sync-products/419414079"}}},{"id":5196653627,"external_id":"6991f724ece476","sync_product_id":419414079,"name":"JewSA Basic Tee / White / L","status":"synced","catalog_variant_id":15126,"warehouse_product_variant_id":null,"retail_price":"25.00","sku":"6991F724EB7FF_White-L","currency":"USD","is_ignored":false,"product_options":[{"name":"lifelike","value":false},{"name":"notes","value":""}],"placements":[{"placement":"front","technique":"dtg","layers":[{"type":"file","position":{"width":4.8373,"height":4.8265,"top":2.3415,"left":3.5905},"url":"","id":null,"layer_options":[]},{"type":"textbox","position":{"width":8.664,"height":2.016,"top":8.8382,"left":1.682},"url":"","id":null,"layer_options":[]}],"placement_options":[],"status":"","status_explanation":""}],"_links":{"self":{"href":"https://api.printful.com/v2/sync-variants/5196653627"},"sync_product":{"href":"https://api.printful.com/v2/sync-products/419414079"}}},{"id":5196653628,"external_id":"6991f724ece4f4","sync_product_id":419414079,"name":"JewSA Basic Tee / White / XL","status":"synced","catalog_variant_id":15127,"warehouse_product_variant_id":null,"retail_price":"25.00","sku":"6991F724EB7FF_White-XL","currency":"USD","is_ignored":false,"product_options":[{"name":"lifelike","value":false},{"name":"notes","value":""}],"placements":[{"placement":"front","technique":"dtg","layers":[{"type":"file","position":{"width":4.8373,"height":4.8265,"top":2.3415,"left":3.5905},"url":"","id":null,"layer_options":[]},{"type":"textbox","position":{"width":8.664,"height":2.016,"top":8.8382,"left":1.682},"url":"","id":null,"layer_options":[]}],"placement_options":[],"status":"","status_explanation":""}],"_links":{"self":{"href":"https://api.printful.com/v2/sync-variants/5196653628"},"sync_product":{"href":"https://api.printful.com/v2/sync-products/419414079"}}},{"id":5196653629,"external_id":"6991f724ece566","sync_product_id":419414079,"name":"JewSA Basic Tee / White / 2XL","status":"synced","catalog_variant_id":15128,"warehouse_product_variant_id":null,"retail_price":"25.00","sku":"6991F724EB7FF_White-2XL","currency":"USD","is_ignored":false,"product_options":[{"name":"lifelike","value":false},{"name":"notes","value":""}],"placements":[{"placement":"front","technique":"dtg","layers":[{"type":"file","position":{"width":4.8373,"height":4.8265,"top":2.3415,"left":3.5905},"url":"","id":null,"layer_options":[]},{"type":"textbox","position":{"width":8.664,"height":2.016,"top":8.8382,"left":1.682},"url":"","id":null,"layer_options":[]}],"placement_options":[],"status":"","status_explanation":""}],"_links":{"self":{"href":"https://api.printful.com/v2/sync-variants/5196653629"},"sync_product":{"href":"https://api.printful.com/v2/sync-products/419414079"}}},{"id":5196653630,"external_id":"6991f724ece5e6","sync_product_id":419414079,"name":"JewSA Basic Tee / White / 3XL","status":"synced","catalog_variant_id":16335,"warehouse_product_variant_id":null,"retail_price":"25.00","sku":"6991F724EB7FF_White-3XL","currency":"USD","is_ignored":false,"product_options":[{"name":"lifelike","value":false},{"name":"notes","value":""}],"placements":[{"placement":"front","technique":"dtg","layers":[{"type":"file","position":{"width":4.8373,"height":4.8265,"top":2.3415,"left":3.5905},"url":"","id":null,"layer_options":[]},{"type":"textbox","position":{"width":8.664,"height":2.016,"top":8.8382,"left":1.682},"url":"","id":null,"layer_options":[]}],"placement_options":[],"status":"","status_explanation":""}],"_links":{"self":{"href":"https://api.printful.com/v2/sync-variants/5196653630"},"sync_product":{"href":"https://api.printful.com/v2/sync-products/419414079"}}}],"extra":[],"paging":{"total":21,"limit":20,"offset":0},"_links":{"self":{"href":"https://api.printful.com/v2/sync-products/419414079/sync-variants?limit=20"},"next":{"href":"https://api.printful.com/v2/sync-products/419414079/sync-variants?limit=20&offset=20"},"first":{"href":"https://api.printful.com/v2/sync-products/419414079/sync-variants?limit=20"},"last":{"href":"https://api.printful.com/v2/sync-products/419414079/sync-variants?limit=20&offset=20"}}}